{
    "antifeatures": {
        "Ads": "Ovaj program sadrži oglase",
        "DisabledAlgorithm": "Ovaj program ima slab sigurnosni potpis",
        "KnownVuln": "Ovaj program sadrži poznatu sigurnosnu ranjivost",
        "NSFW": "Ova aplikacija sadrži sadržaj koji ne bi trebao biti objavljen ili vidljiv svugdje",
        "NoSourceSince": "Izvorni kod više nije dostupan, nije moguće aktualizirati",
        "NonFreeAdd": "Ovaj program predlaže dodatke koji se ne smiju slobodno koristiti",
        "NonFreeAssets": "Ovaj program sadrži dijelove koji se ne smiju slobodno koristiti",
        "NonFreeDep": "Ovaj dodatak ovisi o programima koji se ne smiju slobodno koristiti",
        "NonFreeNet": "Ovaj program predlaže mrežne usluge koje se ne smiju slobodno koristiti",
        "Tracking": "Ovaj program prati tvoje aktivnosti i o njima izvještava",
        "UpstreamNonFree": "Izvorni kod nije u potpunosti slobodan"
    },
    "app_categories": {
        "Connectivity": "Povezivanje",
        "Development": "Razvoj",
        "Games": "Igre",
        "Graphics": "Grafika",
        "Internet": "Internet",
        "Money": "Novac",
        "Multimedia": "Multimedija",
        "Navigation": "Navigacija",
        "Phone & SMS": "Mobitel i SMS",
        "Reading": "Čitanje",
        "Science & Education": "Znanost i obrazovanje",
        "Security": "Sigurnost",
        "Sports & Health": "Sport i zdravlje",
        "System": "Sustav",
        "Theming": "Teme",
        "Time": "Vrijeme",
        "Writing": "Pisanje",
        "show_all_packages": "Prikaži sve pakete (%d)"
    },
    "index": {
        "download_fdroid": "Preuzmi F-Droid",
        "gpg_signature": "PGP potpis",
        "introduction": "F-Droid je instalacijski katalog FOSS programa (slobodan softver otvorenog koda) za Android platformu. Klijent olakšava pregledavanje, instaliranje i nadogradnje programa na tvom uređaju.",
        "screenshot": "Slika F-Droid Android programa",
        "title": "Što je F-Droid?"
    },
    "mirrors": {
        "cn": "Kontinentalna Kina",
        "de": "Njemačka",
        "indiana": "Indiana, SAD",
        "se": "Švedska",
        "tw": "Tajvan",
        "ua": "Ukrajina"
    },
    "navigation": {
        "about": "Informacije",
        "apps": "Programi",
        "contribute": "Doprinesi",
        "documentation": "Dokumentacija",
        "edit_on_gitlab": "Uredi na GitLab-u",
        "forum": "Forum",
        "issues": "Problemi",
        "news": "Novosti",
        "translate_on_weblate": "Prevodi na Weblateu"
    },
    "news": {
        "by": "od",
        "newer_posts": "← Novije objave",
        "older_posts": "Starije objave →",
        "posted_on": "Objavljeno {{ post_date }}"
    },
    "package": {
        "added_on": "Dodano {{ package_added_date }}",
        "anti_features": "Nepoželjne funkcije",
        "anti_features_warning": "Program sadrži funkcije koje ti se možda ne sviđaju.",
        "author": "Autor",
        "build_log": "Zapis izgradnje",
        "build_metadata": "Metapodaci izgradnje",
        "changelog": "Zapis promjena",
        "donate": "Doniraj",
        "download": "Preuzmi {{ file_extension }}",
        "flattr": "Flattr",
        "gpg_signature": "PGP potpis",
        "issue_tracker": "Sustav za praćenja grešaka",
        "liberapay": "Liberapay",
        "license": "Licenca",
        "minimum_android_version": "Za ovu je verziju potreban Android {{ android_version }} ili noviji.",
        "new_in_version": "Novo u verziji {{ latest_version }}",
        "opencollective": "Open Collective",
        "package_icon_alt": "ikona paketa",
        "package_screenshot_alt": "slika programa",
        "packages": "Paketi",
        "permissions": "Dozvole",
        "signed_by_developer": "Izgrađen i potpisan od izvornog programera.",
        "signed_by_fdroid": "Izgrađen i potpisan od F-Droida i zajamčeno odgovara <a href=\"{{ source_code_url }}\">ovoj izvornoj arhivi</a>.",
        "source_code": "Izvorni kôd",
        "suggest_downloading_via_fdroid": "Iako se APK preuzimanja niže dolje mogu odabrati, instaliranjem na taj način nećeš primati obavijesti o nadogradnjama, a i predstavlja manje siguran način za preuzimanje. Preporučujemo instalirati F-Droid klijenta i njega koristiti.",
        "suggested": "predloženo",
        "translation": "Prijevod",
        "version_info": "<b>Verzija {{ package_version }}</b> ({{ package_version_code }})",
        "website": "Web-stranica"
    },
    "permissions": {
        "permdesc_acceptHandovers": "Dozvoljava programu nastaviti razgovor koji je započet u jednom drugom programu.",
        "permdesc_accessBackgroundLocation": "Aplikacija može uvijek pristupiti lokaciji, čak i dok se aplikacija ne koristi.",
        "permdesc_accessCoarseLocation": "Aplikacija može dobiti vašu približnu lokaciju od Usluga lokacije dok se aplikacija ne koristi. Morate uključiti Usluge lokacije za svoj uređaj da bi aplikacija dohvatila lokaciju.",
        "permdesc_accessDrmCertificates": "Dozvoljava programu pružati i koristiti DRM certifikate. Nikada ne bi trebalo biti potrebno za normalne programe.",
        "permdesc_accessFineLocation": "Aplikacija može dobiti vašu točnu lokaciju od Usluga lokacije dok se aplikacija koristi. Morate uključiti Usluge lokacije za svoj uređaj da bi aplikacija dohvatila lokaciju. Ovo može povećati potrošnju baterije.",
        "permdesc_accessImsCallService": "Dozvoljava programu koristiti IMS uslugu za nazivanje bez tvoje intervencije.",
        "permdesc_accessLocationExtraCommands": "Dozvoljava programu pristupiti dodatnim naredbama pružatelja podataka o lokaciji. To može dozvoliti programu da ometa rad GPS-a ili drugih izvora lokacije.",
        "permdesc_accessNetworkConditions": "Dozvoljava programu slušati opažanja o mrežnim uvjetima. Nikada ne bi trebalo biti potrebno za normalne programe.",
        "permdesc_accessNetworkState": "Dozvoljava programu pogledati podatke o mrežnim vezama, kao npr. postojeće mreže koje su povezane.",
        "permdesc_accessNotifications": "Dozvoljava programu pronaći, pregledati i izbrisati obavijesti, uključujući one, koje su poslali drugi programi.",
        "permdesc_accessWifiState": "Dozvoljava programu pogledati podatke o Wi-Fi mreži, kao npr. je li Wi-Fi aktiviran i imena povezanih Wi-Fi uređaja.",
        "permdesc_accessWimaxState": "Dozvoljava programu utvrditi je li WiMAX aktiviran, kao i podatke o povezanim WiMAX mrežama.",
        "permdesc_access_notification_policy": "Dozvoljava programu čitati i pisati konfiguraciju „Ne smetaj”.",
        "permdesc_activityRecognition": "Ovaj program može prepoznati tvoju fizičku aktivnost.",
        "permdesc_addVoicemail": "Dozvoljava programu dodati poruke u tvoj sandučić govornih poruka.",
        "permdesc_answerPhoneCalls": "Dozvoljava programu odgovoriti na dolazne pozive.",
        "permdesc_audioWrite": "Dozvoljava programu mijenjati tvoju zbirku muzike.",
        "permdesc_backgroundCamera": "Aplikacija može snimati fotografije i videozapise pomoću kamere u svakom trenutku.",
        "permdesc_bindCarrierMessagingService": "Dozvoljava vlasniku povezati se s najvišom razinom sučelja usluge slanja poruka. Nikada ne bi trebalo biti potrebno za normalne programe.",
        "permdesc_bindCarrierServices": "Dozvoljava vlasniku povezati se s uslugama operatera. Nikada ne bi trebalo biti potrebno za normalne programe.",
        "permdesc_bindCellBroadcastService": "Omogućuje aplikaciji da se poveže s modulom za emitiranje na mobitele kako bi prosljeđivala poruke koje se emitiraju na mobitele po njihovom primitku. Upozorenja značajke emitiranja na mobitele dostavljaju se na nekim lokacijama kako bi upozorila korisnike na hitne situacije. Zlonamjerne aplikacije mogu ometati izvršavanje ili rad vašeg uređaja kada stigne hitno emitiranje na mobitele.",
        "permdesc_bindConditionProviderService": "Dozvoljava vlasniku povezati se s najvišom razinom sučelja usluge pružanja uvjeta. Nikada ne bi trebalo biti potrebno za normalne programe.",
        "permdesc_bindDreamService": "Dozvoljava vlasniku povezati se s najvišom razinom sučelja usluge zaštite ekrana. Nikada ne bi trebalo biti potrebno za normalne programe.",
        "permdesc_bindNotificationListenerService": "Dozvoljava vlasniku povezati se s najvišom razinom sučelja usluge obavještavanja. Nikada ne bi trebalo biti potrebno za normalne programe.",
        "permdesc_bind_connection_service": "Dozvoljava programu interagirati s telefonskim uslugama za nazivanje/primanje poziva.",
        "permdesc_bind_incall_service": "Dozvoljava programu kontrolirati kada i kako korisnik vidi ekran poziva.",
        "permdesc_bluetooth": "Dozvoljava programu pogledati konfiguraciju Bluetootha na mobitelu te uspostavljati i prihvaćati veze s uparenim uređajima.",
        "permdesc_bluetoothAdmin": "Dozvoljava programu konfigurirati lokalni Bluetooth mobitel, kao i otkrivanje i uparivanje s udaljenim uređajima.",
        "permdesc_bluetooth_advertise": "Aplikaciji omogućuje oglašavanje na Bluetooth uređajima u blizini",
        "permdesc_bluetooth_connect": "Aplikaciji omogućuje povezivanje s uparenim Bluetooth uređajima",
        "permdesc_bluetooth_scan": "Aplikaciji omogućuje otkrivanje i uparivanje Bluetooth uređaja u blizini",
        "permdesc_bodySensors": "Dozvoljava programu pristupiti podacima senzora koji prate tvoje tjelesno stanje, npr. otkucaje srca.",
        "permdesc_bodySensors_background": "Omogućuje aplikaciji pristup podacima s biometrijskih senzora, kao što su puls, temperatura i postotak kisika u krvi, dok je aplikacija u pozadini.",
        "permdesc_broadcastSticky": "Dozvoljava programu slati ljepljiva emitiranja, koje ostaju nakon završetka emitiranja. Prekomjerna upotreba može usporiti mobitel ili učiniti ga nestabilnim, što može prouzročiti prekomjernu upotrebu radne memorije.",
        "permdesc_callCompanionApp": "Dozvoljava programu vidjeti i upravljati trenutačnim pozivima na uređaju. To uključuje podatke poput telefonskih brojeva za pozive i stanja poziva.",
        "permdesc_callPhone": "Dozvoljava programu zvati telefonske brojeve bez tvoje intervencije. To može rezultirati neočekivanim troškovima ili pozivima. Programu ne dozvoljava zvati brojeve za hitne slučajeve. Zlonamjerni programi ti mogu stvarati troškove, obavljanjem poziva bez tvoje potvrde.",
        "permdesc_camera": "Aplikacija može snimati fotografije i videozapise pomoću kamere dok se upotrebljava.",
        "permdesc_cameraOpenCloseListener": "Ta aplikacija može primati povratne pozive prilikom otvaranja (putem neke aplikacije) ili zatvaranja fotoaparata.",
        "permdesc_changeNetworkState": "Dozvoljava programu promijeniti stanje mrežnog povezivanja.",
        "permdesc_changeTetherState": "Dozvoljava programu promijeniti stanje priključenog mrežnog povezivanja.",
        "permdesc_changeWifiMulticastState": "Dozvoljava programu primati pakete poslane na sve uređaje na Wi-Fi mreži koristeći višestruke adrese, ne samo tvoj mobitel. Koristi više energije nego kad se ne upotrebljavaju višestruke adrese.",
        "permdesc_changeWifiState": "Dozvoljava programu povezivanje i prekidanje veze s pristupnim točkama Wi-Fi mreže i promijeniti konfiguraciju uređaja za Wi-Fi mreže.",
        "permdesc_changeWimaxState": "Dozvoljava programu povezivanje i prekidanje veze s WiMAX mrežama.",
        "permdesc_connection_manager": "Dozvoljava programu upravljati telekomunikacijskim vezama.",
        "permdesc_control_incall_experience": "Dozvoljava programu pružiti korisničko iskustvo poziva.",
        "permdesc_createNetworkSockets": "Dozvoljava programu stvoriti mrežne utičnice i koristiti prilagođene mrežne protokole. Preglednik i ostali programi pruže mogućnost slanja podataka na internet, stoga ova dozvola nije potrebna za slanje podataka na internet.",
        "permdesc_disableKeyguard": "Dozvoljava programu deaktivirati zaključavanje tipkovnice i bilo koju povezanu sigurnost za lozinke. Na primjer, mobitel deaktivira zaključavanje tipkovnice prilikom primanja dolaznog telefonskog poziva, a zatim ponovo aktivira zaključavanje tipkovnice kad je poziv završen.",
        "permdesc_enableCarMode": "Dozvoljava programu aktivirati modus auta.",
        "permdesc_exemptFromAudioRecordRestrictions": "Izuzmite aplikaciju iz ograničenja kako biste snimili audiozapis.",
        "permdesc_expandStatusBar": "Dozvoljava programu rasklopiti/sklopiti traku stanja.",
        "permdesc_foregroundService": "Dozvoljava programu upotrijebiti prednje usluge.",
        "permdesc_fullScreenIntent": "Omogućuje aplikaciji da na zaključanom uređaju prikazuje obavijesti kao aktivnosti na cijelom zaslonu",
        "permdesc_getAccounts": "Dozvoljava programu dobiti popis računa koje mobitel pozna. To može uključiti sve račune koji su stvoreni pomoću instaliranih programa.",
        "permdesc_getPackageSize": "Dozvoljava programu pronaći svoj kod, podatke i veličine predmemorije",
        "permdesc_getTasks": "Dozvoljava programu pronaći podatke o trenutačnim i nedavno pokrenutim zadacima. To programu može dozvoliti otkriti podatke o tome koji se programi koriste na uređaju.",
        "permdesc_handoverStatus": "Dozvoljava ovom programu primati podatke o trenutačnim prijenosima Android Beam-a",
        "permdesc_highSamplingRateSensors": "Aplikaciji omogućuje uzorkovanje podataka senzora pri brzini većoj od 200 Hz",
        "permdesc_imagesWrite": "Dozvoljava programu mijenjati tvoju zbirku fotografija.",
        "permdesc_install_shortcut": "Dozvoljava programu dodati prečace za početni ekran bez intervencije korisnika.",
        "permdesc_invokeCarrierSetup": "Dozvoljava vlasniku pozvati konfiguracijski program operatera. Nikada ne bi trebalo biti potrebno za normalne programe.",
        "permdesc_killBackgroundProcesses": "Dozvoljava programu završiti pozadinske procese drugih programa. To može zaustaviti pokretanje drugih programa.",
        "permdesc_manageFace": "Dozvoljava programu pozvati metode za dodavanje i brisanje predložaka lica.",
        "permdesc_manageFingerprint": "Dozvoljava programu pozvati metode za dodavanje i brisanje predložaka otisaka prstiju.",
        "permdesc_manageNetworkPolicy": "Dozvoljava programu upravljati politikama mreže i definirati pravila koja su posebna za program.",
        "permdesc_manageOngoingCalls": "Omogućuje aplikaciji pregled pojedinosti o tekućim pozivima na uređaju i upravljanje tim pozivima.",
        "permdesc_manageOwnCalls": "Dozvoljava programu usmjeriti svoje pozive kroz sustav kako bi se poboljšao doživljaj pozivanja.",
        "permdesc_manageProfileAndDeviceOwners": "Dozvoljava programu postaviti vlasnike profila i vlasnika uređaja.",
        "permdesc_mediaLocation": "Dozvoljava programu čitati lokacije iz tvoje zbirke medija.",
        "permdesc_modifyAudioSettings": "Dozvoljava programu mijenjati globalne postavke zvuka kao što su glasnoća i korišteni zvučnik.",
        "permdesc_modifyNetworkAccounting": "Dozvoljava programu mijenjati način obračunavanja upotrebe mreže ovisno o programima. Ne koristi se za normalne programe.",
        "permdesc_nearby_wifi_devices": "Aplikaciji omogućuje oglašavanje, povezivanje i određivanje približnog položaja Wi-Fi uređaja u blizini",
        "permdesc_nfc": "Dozvoljava programu komunicirati s Near Field Communication (NFC) oznakama, karticama i čitačima.",
        "permdesc_persistentActivity": "Dozvoljava programu postaviti dijelove programa postojanim u memoriji. Ovo može ograničiti memoriju koja je dostupna drugim programima, usporavajući pri tome mobitel.",
        "permdesc_postNotification": "Aplikaciji omogućuje prikazivanje obavijesti",
        "permdesc_preferredPaymentInfo": "Omogućuje aplikaciji primanje informacija o preferiranoj usluzi plaćanja NFC kao što su registrirana pomagala i odredište.",
        "permdesc_processOutgoingCalls": "Dozvoljava programu vidjeti broj koji se bira tijekom odlaznog poziva s opcijom preusmjeravanja poziva na jedan drugi broj ili prekida poziva u cijelosti.",
        "permdesc_queryAllPackages": "Aplikaciji omogućuje pregled instaliranih paketa.",
        "permdesc_readBasicPhoneState": "Dopušta aplikacijama pristup osnovnim telefonskim značajkama uređaja.",
        "permdesc_readCalendar": "Ovaj program može čitati sve događaje u kalendaru koji su spremljeni na tvom mobitelu i dijeliti ili spremati podatke tvog kalendara.",
        "permdesc_readCallLog": "Ovaj program može čitati tvoju povijest poziva.",
        "permdesc_readCellBroadcasts": "Dozvoljava programu čitati poruke emitirajuće stanice primljene na tvom uređaju. Upozorenja emitirajuće stanice isporučuju se na nekim lokacijama kako bi upozorili na hitne situacije. Zlonamjerni programi mogu ometati performanse ili rad tvog uređaja kad primi takve poruke.",
        "permdesc_readContacts": "Aplikaciji omogućuje čitanje podataka o vašim kontaktima pohranjenim na vašem telefonu. Aplikacije će također imati pristup računima na vašem telefonu na kojima su izrađeni kontakti. To može uključivati račune izrađene u aplikacijama koje ste instalirali. To dopuštenje omogućuje aplikacijama spremanje podataka o kontaktima, a zlonamjerne aplikacije mogu dijeliti podatke o kontaktima bez vašeg znanja.",
        "permdesc_readHistoryBookmarks": "Dozvoljava programu čitati povijest svih URL-ova koje je preglednik posjetio i svih zabilježaka preglednika. Napomena: ovu dozvolu ne mogu primijeniti drugi preglednici ili drugi programi s mogućnostima web pregledavanja.",
        "permdesc_readInstallSessions": "Dozvoljava programu čitati sesije instalacije. To dozvoljava programu vidjeti detalje o aktivnim instalacijama paketa.",
        "permdesc_readMediaAudio": "Aplikaciji omogućuje čitanje audiodatoteka iz dijeljene pohrane.",
        "permdesc_readMediaImages": "Aplikaciji omogućuje čitanje slikovnih datoteka iz dijeljene pohrane.",
        "permdesc_readMediaVideo": "Aplikaciji omogućuje čitanje videodatoteka iz dijeljene pohrane.",
        "permdesc_readNetworkUsageHistory": "Dozvoljava programu čitati povijest upotrebe mreže za određene mreže i programe.",
        "permdesc_readPhoneNumbers": "Dozvoljava programu pristup telefonskim brojevima na uređaju.",
        "permdesc_readPhoneState": "Dozvoljava programu pristup telefonskim funkcijama uređaja. To dozvoljava programu odrediti telefonski broj i ID-ove uređaja, je li poziv aktivan i udaljeni broj povezan s nekim pozivom.",
        "permdesc_readSms": "Ovaj program može čitati sve SMS (tekstualne) poruke koje su spremljene na tvom mobitelu.",
        "permdesc_readSyncSettings": "Dozvoljava programu čitati postavke sinkronizacije računa. Na primjer, ovo može odlučiti, hoće li se program Ljudi sinkronizirati s računom.",
        "permdesc_readSyncStats": "Dozvoljava programu čitati statističke podatke o sinkronizaciji računa, uključujući povijest sinkronizacija i količinu sinkroniziranih podataka.",
        "permdesc_receiveBootCompleted": "Dozvoljava programu automatsko pokretanje, čim se sustav pokrene. Ovo može produžiti vrijeme pokretanja mobitela i dopustiti programu da uspori cjelokupni mobitel, time što je stalno pokrenut.",
        "permdesc_receiveMms": "Dozvoljava programu primati i obraditi MMS poruke. To znači da program može pratiti ili izbrisati poruke koje su poslane na tvoj uređaj, bez da ih pokaže.",
        "permdesc_receiveSms": "Dozvoljava programu primati i obraditi SMS poruke. To znači da program može pratiti ili izbrisati poruke koje su poslane na tvoj uređaj, bez da ih pokaže.",
        "permdesc_receiveWapPush": "Dozvoljava programu primati i obraditi WAP poruke. Ta dozvola uključuje mogućnost praćenja ili brisanja poruka koje su ti poslane, bez da ih pokaže.",
        "permdesc_recordAudio": "Aplikacija može snimati audiozapise pomoću mikrofona dok se upotrebljava.",
        "permdesc_recordBackgroundAudio": "Aplikacija može snimati audiozapise pomoću mikrofona u svakom trenutku.",
        "permdesc_register_call_provider": "Dozvoljava programu registrirati nove telekomunikacijske veze.",
        "permdesc_register_sim_subscription": "Dozvoljava programu registrirati nove telekomunikacijske SIM veze.",
        "permdesc_removeDrmCertificates": "Dozvoljava programu ukloniti DRM certifikate. Nikada ne bi trebalo biti potrebno za normalne programe.",
        "permdesc_reorderTasks": "Dozvoljava programu premještati zadatke prema naprijed ili prema natrag. Program to može samostalno obavljati.",
        "permdesc_requestDeletePackages": "Dozvoljava programu zatražiti brisanje paketa.",
        "permdesc_requestIgnoreBatteryOptimizations": "Dozvoljava programu zatražiti dozvolu za zanemarivanje optimizacije baterije za taj program.",
        "permdesc_requestInstallPackages": "Dozvoljava programu zatražiti instaliranje paketa.",
        "permdesc_requestPasswordComplexity": "Dozvoljava programu učiti razine složenosti zaključavanja ekrana (visoka, srednja, niska ili nijedna), što ukazuje na mogući raspon duljine i vrste zaključavanja ekrana. Program također može korisnicima predložiti, da aktualiziraju zaključavanje ekrana do određene razine, ali korisnici to mogu slobodno znemariti i nastaviti dalje. Zaključavanje ekrana nije spremljeno u čitljivom tekstu, tako da program ne pozna točnu lozinku.",
        "permdesc_route_media_output": "Dozvoljava programu usmjeriti rezultat medija na druge vanjske uređaje.",
        "permdesc_runInBackground": "Ovaj se program može pokrenuti u pozadini. Možda će se baterija brže trošiti.",
        "permdesc_sdcardRead": "Dozvoljava programu čitati sadržaje tvoje dijeljene memorije.",
        "permdesc_sdcardWrite": "Dozvoljava programu pisati sadržaj tvoje dijeljene memorije.",
        "permdesc_sendSms": "Dozvoljava programu slati SMS poruke. To može prouzročiti neočekivane troškove. Zlonamjerni programi ti mogu stvarati troškove, slanjem poruka bez tvoje potvrde.",
        "permdesc_setAlarm": "Dozvoljava programu postaviti alarm u instaliranom programu budilice. Neki programi budilica možda neće implementirati ovu funkciju.",
        "permdesc_setInputCalibration": "Dozvoljava programu mijenjati parametre za kalibriranje dodirnog ekrana. Nikada ne bi trebalo biti potrebno za normalne programe.",
        "permdesc_setTimeZone": "Dozvoljava programu promijeniti vremensku zonu mobitela.",
        "permdesc_setWallpaper": "Dozvoljava programu postaviti sliku pozadine sustava.",
        "permdesc_setWallpaperHints": "Dozvoljava programu postaviti savjete za veličinu slike pozadine sustava.",
        "permdesc_sim_communication": "Dozvoljava programu slati naredbe na SIM. Ovo je vrlo opasno.",
        "permdesc_startReviewPermissionDecisions": "Dopušta nositelju pokretanje zaslona za pregled odluka o dopuštenjima. Ne bi trebalo biti potrebno za uobičajene aplikacije.",
        "permdesc_startViewAppFeatures": "Dopušta nositelju pokretanje prikaza informacija o značajkama aplikacije.",
        "permdesc_startViewPermissionUsage": "Dozvoljava vlasniku započeti upotrebu dozvole za program. Nikada ne bi trebalo biti potrebno za normalne programe.",
        "permdesc_statusBar": "Dozvoljava programu deaktivirati traku stanja ili dodati i ukloniti ikone sustava.",
        "permdesc_statusBarService": "Dozvoljava programu biti traka stanja.",
        "permdesc_subscribedFeedsRead": "Dozvoljava programu dobiti detalje o trenutačno sinkroniziranim feedovima.",
        "permdesc_systemAlertWindow": "Ovaj se program može prikazati ispred drugih programa ili na drugim dijelovima ekrana. To može ometati normalnu upotrebu programa i promijeniti način na koji se drugi progami pojavljuju.",
        "permdesc_systemCamera": "Ova povlaštena aplikacija ili aplikacija sustava u svakom trenutku može snimati fotografije i videozapise kamerom sustava. Aplikacija mora imati i dopuštenje android.permission.CAMERA",
        "permdesc_transmitIr": "Dozvoljava programu koristiti mobitelov infracrveni način prijenosa.",
        "permdesc_uninstall_shortcut": "Dozvoljava programu ukloniti prečace za početni ekran bez intervencije korisnika.",
        "permdesc_useBiometric": "Dozvoljava programu koristiti biometrijski hardver za autentifikaciju",
        "permdesc_useDataInBackground": "Ovaj program može koristiti podatke u pozadini. Time se možda povećava upotreba podataka.",
        "permdesc_useFaceAuthentication": "Aplikaciji omogućuje upotrebu hardvera za otključavanje licem radi autentifikacije",
        "permdesc_useFingerprint": "Dozvoljava programu koristiti hardver za otiske prstiju za autentifikaciju",
        "permdesc_use_sip": "Dozvoljava programu nazvati i primati pozive putem SIP-a.",
        "permdesc_uwb_ranging": "Dopušta aplikaciji da odredi približni položaj između uređaja u blizini koji upotrebljavaju ultraširokopojasno povezivanje",
        "permdesc_vibrate": "Dozvoljava programu upravljati vibracijom.",
        "permdesc_vibrator_state": "Aplikaciji omogućuje da pristupi stanju vibracije.",
        "permdesc_videoWrite": "Dozvoljava programu mijenjati tvoju zbirku videa.",
        "permdesc_wakeLock": "Dozvoljava programu spriječiti mobitel da prijeđe u neaktivno stanje.",
        "permdesc_writeCalendar": "Ovaj program može dodavati, uklanjati ili mijenjati događaje u kalendaru na tvom mobitelu. Ovaj program može slati poruke za koje se čini da dolaze od vlasnika kalendara ili mijenjati događaje bez obavještavanja njihovih vlasnika.",
        "permdesc_writeCallLog": "Dozvoljava programu mijenjati zapis poziva, uključujući podatke o dolaznim i odlaznim pozivima. Zlonamjerni programi to mogu koristiti za brisanje ili promjenu zapisa poziva.",
        "permdesc_writeContacts": "Aplikaciji omogućuje izmjenu podataka o vašim kontaktima pohranjenim na vašem telefonu. To dopuštenje aplikacijama omogućuje da brišu podatke o kontaktima.",
        "permdesc_writeGeolocationPermissions": "Dozvoljava programu mijenjati dozvole geolokacije preglednika. Zlonamjerni programi to mogu koristiti za dozvoljavanje slanja podataka o lokaciji na proizvoljne web-stranice.",
        "permdesc_writeHistoryBookmarks": "Dozvoljava programu mijenjati povijest preglednika ili spremljenih zabilježaka na mobitelu. To može dozvoliti programu izbrisati ili mijenjati podatke preglednika. Napomena: ovu dozvolu ne mogu primijeniti drugi preglednici ili drugi programi s mogućnostima web pregledavanja.",
        "permdesc_writeSettings": "Dozvoljava programu mijenjati podatke postavki sustava. Zlonamjerni programi mogu oštetiti konfiguraciju sustava.",
        "permdesc_writeSyncSettings": "Dozvoljava programu mijenjati postavke sinkronizacije računa. Na primjer, ovo se može koristiti za dekativiranje sinkronizacije programa Ljudi s računom.",
        "permgroupbackgroundrequest_location": "Omogući programu zatražiti lokaciju pozadine.",
        "permgroupbackgroundrequestdetail_location": "Program trenutačno može pristupiti lokaciji samo dok koristiš program",
        "permgroupdesc_activityRecognition": "pristupiti vašoj tjelesnoj aktivnosti",
        "permgroupdesc_calendar": "pristupi tvom kalendaru",
        "permgroupdesc_calllog": "čitaj i zapiši telefonske pozive",
        "permgroupdesc_camera": "snimaj slike i video",
        "permgroupdesc_contacts": "pristupi tvojim kontaktima",
        "permgroupdesc_location": "pristupi lokaciji ovog uređaja",
        "permgroupdesc_microphone": "snimaj zvuk",
        "permgroupdesc_nearby_devices": "otkrivanje i povezivanje s uređajima u blizini",
        "permgroupdesc_notifications": "prikazati obavijesti",
        "permgroupdesc_phone": "nazovi i upravljaj telefonskim pozivima",
        "permgroupdesc_readMediaAural": "pristupite glazbi i zvuku na svom uređaju",
        "permgroupdesc_readMediaVisual": "pristupite fotografijama i videozapisima na svom uređaju",
        "permgroupdesc_sensors": "pristupi podacima senzora za tvoje vitalne funikcije",
        "permgroupdesc_sms": "šalji i čitaj SMS poruke",
        "permgroupdesc_storage": "pristupi fotografijama, medijima i datotekama na tvom uređaju",
        "permgrouplab_activityRecognition": "Fizička aktivnost",
        "permgrouplab_calendar": "Kalendar",
        "permgrouplab_calllog": "Zapis poziva",
        "permgrouplab_camera": "Kamera",
        "permgrouplab_contacts": "Kontakti",
        "permgrouplab_location": "Lokacija",
        "permgrouplab_microphone": "Mikrofon",
        "permgrouplab_nearby_devices": "Uređaji u blizini",
        "permgrouplab_notifications": "Obavijesti",
        "permgrouplab_phone": "Mobitel",
        "permgrouplab_readMediaAural": "Glazba i zvuk",
        "permgrouplab_readMediaVisual": "Fotografije i videozapisi",
        "permgrouplab_sensors": "Tjelesni senzor",
        "permgrouplab_sms": "SMS",
        "permgrouplab_storage": "Datoteke",
        "permgrouprequest_activityRecognition": "Dozvoli programu pratiti tvoju aktivnost.",
        "permgrouprequest_calendar": "Dozvoli <b>",
        "permgrouprequest_calllog": "Dozvoli <b>",
        "permgrouprequest_camera": "Dozvoli <b>",
        "permgrouprequest_contacts": "Dozvoli <b>",
        "permgrouprequest_location": "Dozvoli <b>",
        "permgrouprequest_microphone": "Dozvoli <b>",
        "permgrouprequest_phone": "Dozvoli <b>",
        "permgrouprequest_sensors": "Dozvoli <b>",
        "permgrouprequest_sms": "Dozvoli <b>",
        "permgrouprequest_storage": "Dozvoli <b>",
        "permgrouprequestdetail_location": "Program će moći pristupiti lokaciji samo dok koristiš program",
        "permission_request_notification_for_app_with_subtitle": "Aplikacija",
        "permlab_acceptHandover": "nastavi razgovor iz jednog drugog programa",
        "permlab_accessBackgroundLocation": "pristup lokaciji u pozadini",
        "permlab_accessCoarseLocation": "pristupiti približnoj lokaciji samo u prednjem planu",
        "permlab_accessDrmCertificates": "pristupi DRM certifikatima",
        "permlab_accessFineLocation": "pristupi točnoj lokaciji samo u aktivnom prozoru",
        "permlab_accessImsCallService": "pristupi pozivima IMS usluge",
        "permlab_accessLocationExtraCommands": "pristupi dodatnim naredbama pružatelja podataka o lokaciji",
        "permlab_accessNetworkConditions": "prati mrežne uvjete",
        "permlab_accessNetworkState": "prikaži mrežne veze",
        "permlab_accessNotifications": "pristupi obavijestima",
        "permlab_accessWifiState": "prikaži Wi-Fi veze",
        "permlab_accessWimaxState": "povezivanje i prekidanje veze s WiMAX mrežom",
        "permlab_access_notification_policy": "pristupi funkciji „Ne smetaj”",
        "permlab_activityRecognition": "prepoznaj fizičku aktivnost",
        "permlab_addVoicemail": "dodaj govorne poruke",
        "permlab_answerPhoneCalls": "odgovori na pozive",
        "permlab_audioWrite": "promijeni muzičku zbirku",
        "permlab_backgroundCamera": "snimati fotografije i videozapise u pozadini",
        "permlab_bindCarrierMessagingService": "poveži s uslugom operatera za slanje poruka",
        "permlab_bindCarrierServices": "poveži s uslugama operatera",
        "permlab_bindCellBroadcastService": "Prosljeđivanje poruka emitiranja na mobitele",
        "permlab_bindConditionProviderService": "poveži s uslugom pružatelja uvjeta",
        "permlab_bindDreamService": "poveži s uslugom zaštite ekrana",
        "permlab_bindNotificationListenerService": "poveži s uslugom obavještavanja",
        "permlab_bind_connection_service": "interagiraj s telefonskim uslugama",
        "permlab_bind_incall_service": "interagiraj s ekranom poziva",
        "permlab_bluetooth": "upari se s Bluetooth uređajima",
        "permlab_bluetoothAdmin": "pristupi Bluetooth postavkama",
        "permlab_bluetooth_advertise": "oglašavanje na Bluetooth uređajima u blizini",
        "permlab_bluetooth_connect": "povezati se s uparenim Bluetooth uređajima",
        "permlab_bluetooth_scan": "otkriti i upariti Bluetooth uređaje u blizini",
        "permlab_bodySensors": "pristupi tjelesnim senzorima (npr. praćenje otkucaja srca)",
        "permlab_bodySensors_background": "Pristup podacima s biometrijskih senzora, kao što je puls, dok je u pozadini",
        "permlab_broadcastSticky": "slanje poruka s naknadnim spremanjem",
        "permlab_callCompanionApp": "prati i upravljaj pozivima putem sustava.",
        "permlab_callPhone": "direktno pozovi telefonske brojeve",
        "permlab_camera": "snimaj slike i video",
        "permlab_cameraOpenCloseListener": "Dopustite aplikaciji ili usluzi da prima povratne pozive o otvaranju ili zatvaranju fotoaparata.",
        "permlab_changeNetworkState": "promijeni mrežno povezivanje",
        "permlab_changeTetherState": "promijeni priključeno povezivanje",
        "permlab_changeWifiMulticastState": "dozvoli prijem vešestrukih Wi-Fi veza",
        "permlab_changeWifiState": "povezivanje i prekidanje veze s Wi-Fi mrežom",
        "permlab_changeWimaxState": "promijeni stanje WiMAX-a",
        "permlab_connection_manager": "upravljaj telekomunikacijskim vezama",
        "permlab_control_incall_experience": "pruži korisničko iskustvo poziva",
        "permlab_createNetworkSockets": "dozvoli potpun pristup mreži",
        "permlab_disableKeyguard": "deaktiviraj tvoje zaključavanje ekrana",
        "permlab_enableCarMode": "aktiviraj modus auta",
        "permlab_exemptFromAudioRecordRestrictions": "izuzeće iz ograničenja audiozapisa",
        "permlab_expandStatusBar": "rasklopi/sklopi traku stanja",
        "permlab_foregroundService": "pokreni uslugu aktivnog prozora",
        "permlab_fullScreenIntent": "prikazivati obavijesti kao aktivnosti na cijelom zaslonu na zaključanom uređaju",
        "permlab_getAccounts": "pronađi račune na uređaju",
        "permlab_getPackageSize": "mjeri količinu memorije programa",
        "permlab_getTasks": "pronađi pokrenute programe",
        "permlab_handoverStatus": "primi stanje Android Beam prijenosa",
        "permlab_highSamplingRateSensors": "pristup podacima senzora pri višoj brzini uzorkovanja",
        "permlab_imagesWrite": "promijeni svoju zbirku fotografija",
        "permlab_install_shortcut": "instaliraj tipkovničke prečace",
        "permlab_invokeCarrierSetup": "pozovi konfiguracijski program operatera",
        "permlab_killBackgroundProcesses": "zatvori ostale programe",
        "permlab_manageFace": "Upravljajte hardverom za otključavanje licem",
        "permlab_manageFingerprint": "upravljaj hardverom za otiske prstiju",
        "permlab_manageNetworkPolicy": "upravljaj mrežnom politikom",
        "permlab_manageOngoingCalls": "Upravljanje tekućim pozivima",
        "permlab_manageOwnCalls": "usmjeri pozive kroz sustav",
        "permlab_manageProfileAndDeviceOwners": "upravljaj profilima i vlasnicima uređaja",
        "permlab_mediaLocation": "čitaj lokacije iz tvoje zbirke medija",
        "permlab_modifyAudioSettings": "promijeni svoje postavke zvuka",
        "permlab_modifyNetworkAccounting": "promijeni obračunavanje upotrebe mreže",
        "permlab_nearby_wifi_devices": "interakcija s Wi-Fi uređajima u blizini",
        "permlab_nfc": "upravljaj Near Field Communication oznakama",
        "permlab_persistentActivity": "omogući stalno pokretanje programa",
        "permlab_postNotification": "prikazati obavijesti",
        "permlab_preferredPaymentInfo": "Informacije o preferiranoj usluzi plaćanja NFC",
        "permlab_processOutgoingCalls": "preusmjeri izlazne pozive",
        "permlab_queryAllPackages": "slanje upita za sve pakete",
        "permlab_readBasicPhoneState": "čitanje osnovnih telefonskih statusa i identiteta",
        "permlab_readCalendar": "Čitaj kalendarske događaje i detalje",
        "permlab_readCallLog": "čitaj zapise poziva",
        "permlab_readCellBroadcasts": "čitaj poruke emitirajuće stanice",
        "permlab_readContacts": "čitaj svoje kontakte",
        "permlab_readHistoryBookmarks": "čitaj svoje web-zabilješke i povijest",
        "permlab_readInstallSessions": "čitaj sesije instalacija",
        "permlab_readMediaAudio": "čitanje audiodatoteka iz dijeljene pohrane",
        "permlab_readMediaImages": "čitati slikovne datoteke iz dijeljene pohrane",
        "permlab_readMediaVideo": "čitanje videodatoteka iz dijeljene pohrane",
        "permlab_readNetworkUsageHistory": "čitaj povijest upotrebe mreže",
        "permlab_readPhoneNumbers": "čitaj telefonske brojeve",
        "permlab_readPhoneState": "čitaj stanje mobitela i identitet",
        "permlab_readSms": "čitaj tvoje tekstualne poruke (SMS ili MMS)",
        "permlab_readSyncSettings": "čitaj postavke sinkronizacije",
        "permlab_readSyncStats": "čitaj statistiku sinkronizacije",
        "permlab_receiveBootCompleted": "pokreni prilikom pokretanja sustava",
        "permlab_receiveMms": "primaj tekstualne poruke (MMS)",
        "permlab_receiveSms": "primaj tekstualne poruke (SMS)",
        "permlab_receiveWapPush": "primaj tekstualne poruke (WAP)",
        "permlab_recordAudio": "snimaj zvuk",
        "permlab_recordBackgroundAudio": "snimati audiozapise u pozadini",
        "permlab_register_call_provider": "registriraj nove telekomunikacijske veze",
        "permlab_register_sim_subscription": "registriraj nove telekomunikacijske SIM veze",
        "permlab_removeDrmCertificates": "ukloni DRM certifikate",
        "permlab_reorderTasks": "prerasporedi pokrenute programe",
        "permlab_requestDeletePackages": "zatraži brisanje paketa",
        "permlab_requestIgnoreBatteryOptimizations": "zatraži zanemarivanje optimiranja baterije",
        "permlab_requestInstallPackages": "zatraži instalacijske pakete",
        "permlab_requestPasswordComplexity": "zatraži kompleksnost zaključavanja ekrana",
        "permlab_route_media_output": "usmjeri rezultat medija",
        "permlab_runInBackground": "pokreni u pozadini",
        "permlab_sdcardRead": "čitaj sadržaje tvoje dijeljene memorije",
        "permlab_sdcardWrite": "promijeni ili izbriši sadržaje tvoje dijeljene memorije",
        "permlab_sendSms": "šalji i čitaj SMS poruke",
        "permlab_setAlarm": "postavi alarm",
        "permlab_setInputCalibration": "promijeni kalibraciju uređaja za unos",
        "permlab_setTimeZone": "postavi vremensku zonu",
        "permlab_setWallpaper": "postavi sliku pozadine",
        "permlab_setWallpaperHints": "podesi veličinu slike pozadine",
        "permlab_sim_communication": "pošalji naredbe SIM-u",
        "permlab_startReviewPermissionDecisions": "pokrenuti odluke o dopuštenju za pregled",
        "permlab_startViewAppFeatures": "pokretanje prikaza značajki aplikacije",
        "permlab_startViewPermissionUsage": "pokreni prikaz upotrebe dozvole",
        "permlab_statusBar": "deaktiviraj ili promijeni traku stanja",
        "permlab_statusBarService": "budi traka stanja",
        "permlab_subscribedFeedsRead": "čitaj pretplašene feedove",
        "permlab_systemAlertWindow": "Ovaj se program može prikazati ispred drugih programa",
        "permlab_systemCamera": "Dopustite aplikaciji ili usluzi da pristupa kamerama sustava radi snimanja fotografija i videozapisa",
        "permlab_transmitIr": "prenesi infracrvenim načinom",
        "permlab_uninstall_shortcut": "deinstaliraj prečace",
        "permlab_useBiometric": "koristi biometrički hardver",
        "permlab_useDataInBackground": "koristi podatke u pozadini",
        "permlab_useFaceAuthentication": "Koristiti hardver za otključavanje licem",
        "permlab_useFingerprint": "koristi hardver za otiske prstiju",
        "permlab_use_sip": "nazovi/primi pozive putem SIP-a",
        "permlab_uwb_ranging": "odredite približni položaj između uređaja u blizini koji upotrebljavaju ultraširokopojasno povezivanje",
        "permlab_vibrate": "upravljaj vibracijom",
        "permlab_videoWrite": "promijeni svoju zbirku video snimaka",
        "permlab_wakeLock": "spriječi mobitel da prijeđe u neaktivno stanje",
        "permlab_writeCalendar": "dodaj ili promijeni kalendarske događaje i pošalji e-mail gostima, bez obavještavanja vlasnika",
        "permlab_writeCallLog": "zapiši telefonske pozive",
        "permlab_writeContacts": "promijeni svoje kontake",
        "permlab_writeGeolocationPermissions": "promijeni dozvole geolokacije preglednika",
        "permlab_writeHistoryBookmarks": "zapiši web-zabilješke i povijest",
        "permlab_writeSettings": "promijeni postavke sustava",
        "permlab_writeSyncSettings": "uključi i isključi sinkronizaciju"
    },
    "sidebars": {
        "donate": {
            "bank_transfer_name": "Ime",
            "bitcoin_alt": "Doniraj putem Bitcoin",
            "credit_card": "Kreditna kartica",
            "crypto": "Kripto",
            "currency": "Valuta",
            "flattr_alt": "Doniraj putem Flattr",
            "heading": "Doniraj",
            "hellotux": "👕 Majice 👕 od",
            "hellotux_alt": "HELLOTUX",
            "hellotux_donation": "F-Droid prima 3 € po prodanoj majici.",
            "liberapay_alt": "Doniraj putem Liberapay",
            "litecoin_alt": "Doniraj putem Litecoin",
            "more_options": "Daljnje opcije",
            "opencollective_alt": "Doniraj našoj zadruzi",
            "paypal": "PayPal",
            "paypal_alt": "Collective PayPal",
            "powered_by_donations": "Tvojim donacijama podržavaš razvoj F-Droida!",
            "via_bank_transfer": "Bankovni prijenos"
        },
        "lang": {
            "change": "Promijeni"
        },
        "last_updated": {
            "heading": "Zadnje aktualiziranje"
        },
        "latest_packages": {
            "heading": "Najnoviji programi"
        },
        "news": {
            "heading": "Novosti"
        },
        "search": {
            "heading": "Traži programe",
            "noscript": "Za pokretanje je potreban JavaScript",
            "search": "Traži"
        }
    }
}
